<?xml version="1.0"?>
<svg xmlns="http://www.w3.org/2000/svg" xmlns:xlink="http://www.w3.org/1999/xlink" version="1.1" id="Layer_1" x="0px" y="0px" viewBox="0 0 512 512" style="enable-background:new 0 0 512 512;" xml:space="preserve" width="512px" height="512px" class=""><g><g><g id="XMLID_392_">
	<g id="XMLID_393_">
		<g id="XMLID_394_">
			<path id="XMLID_395_" style="fill:#E8C001" d="M504.5,99.44v341.91c0,6.62-5.37,12-12,12h-473c-6.63,0-12-5.38-12-12V99.44     c0-6.63,5.37-12,12-12h473C499.13,87.44,504.5,92.81,504.5,99.44z" data-original="#E8C001" class="" data-old_color="#FD6096"/>
			<path id="XMLID_396_" style="fill:#FFD401" d="M491.74,87.44V408c0,13.23-10.77,24-24,24H44.26c-13.23,0-24-10.77-24-24V87.44     H491.74z" data-original="#FFD401" class="" data-old_color="#FC3E81"/>
			<path id="XMLID_397_" style="fill:#FFD401" d="M504.5,99.44v341.91c0,6.62-5.37,12-12,12H256V87.44h236.5     C499.13,87.44,504.5,92.81,504.5,99.44z" data-original="#FFD401" class="" data-old_color="#FC3E81"/>
			<path id="XMLID_398_" style="fill:#E8C001" d="M491.74,87.44V408c0,13.23-10.77,24-24,24H256V87.44H491.74z" data-original="#E8C001" class="" data-old_color="#F01054"/>
			<path id="XMLID_401_" style="fill:#66686B" d="M479.74,354.94V408c0,6.63-5.37,12-12,12H44.26c-6.63,0-12-5.37-12-12v-53.06     H479.74z" data-original="#66686B" class="" data-old_color="#ADC9E2"/>
			<path id="XMLID_404_" style="fill:#66686B" d="M479.74,354.94V408c0,6.63-5.37,12-12,12H256v-65.06H479.74z" data-original="#66686B" class="" data-old_color="#84A1C0"/>
			<g id="XMLID_405_">
				<path id="XMLID_2595_" style="fill:#FFFFFF" d="M468.936,379.199H43.064c-5.967,0-10.804-4.837-10.804-10.804V69.458      c0-5.967,4.837-10.804,10.804-10.804h425.871c5.967,0,10.804,4.837,10.804,10.804v298.937      C479.74,374.362,474.903,379.199,468.936,379.199z" data-original="#FFFFFF" class="" data-old_color="#ffffff"/>
				<path id="XMLID_2592_" style="fill:#66686B" d="M43.064,58.654H256v178.305H32.26V69.458      C32.26,63.491,37.097,58.654,43.064,58.654z" data-original="#66686B" class="" data-old_color="#E8C001"/>
				<rect id="XMLID_2589_" x="32.26" y="177.524" style="fill:#FFD401" width="223.74" height="59.435" data-original="#FFD401" class="" data-old_color="#82C11F"/>
				<path id="XMLID_2586_" style="fill:#FFD401" d="M43.064,58.654H256v59.435H32.26V69.458      C32.26,63.491,37.097,58.654,43.064,58.654z" data-original="#FFD401" class="" data-old_color="#D6ED72"/>
				<path id="XMLID_2583_" style="fill:#FFFFFF" d="M479.74,69.457v298.938c0,5.97-4.835,10.804-10.804,10.804H256V58.653h212.936      C474.905,58.653,479.74,63.488,479.74,69.457z" data-original="#FFFFFF" class="" data-old_color="#ffffff"/>
				<path id="XMLID_2580_" style="fill:#E8C001" d="M479.218,69.457v149.1L256,280.205V58.653h212.413      C474.383,58.653,479.218,63.488,479.218,69.457z" data-original="#E8C001" class="" data-old_color="#000000"/>
				<g id="XMLID_406_">
					<g id="XMLID_413_">
						<path id="XMLID_416_" style="fill:#66686B" d="M453.78,142.49c0,25.85-20.96,46.82-46.82,46.82        c-8.18,0-15.87-2.11-22.57-5.82c-0.36-0.19-0.72-0.39-1.07-0.6c-13.87-8.11-23.18-23.17-23.18-40.4        c0-6.88,1.49-13.41,4.15-19.29c0.17-0.38,0.35-0.75,0.53-1.12c7.57-15.63,23.6-26.41,42.14-26.41        C432.82,95.67,453.78,116.64,453.78,142.49z" data-original="#66686B" class="" data-old_color="#FFD401"/>
						<path id="XMLID_419_" style="fill:#000000" d="M386.55,167.7c0,5.47-0.75,10.76-2.16,15.79c-0.36-0.19-0.72-0.39-1.07-0.6        c-13.87-8.11-23.18-23.17-23.18-40.4c0-6.88,1.49-13.41,4.15-19.29c0.17-0.38,0.35-0.75,0.53-1.12        C378.07,132.88,386.55,149.32,386.55,167.7z" data-original="#000000" class="active-path" data-old_color="#19AA60"/>
					</g>
				</g>
				<g id="XMLID_420_">
					<g id="XMLID_421_">
						<circle id="XMLID_2569_" style="fill:#FFD401" cx="327.729" cy="167.7" r="46.819" data-original="#FFD401" class="" data-old_color="#000000"/>
					</g>
				</g>
			</g>
		</g>
	</g>
	<g id="XMLID_422_">
		<path id="XMLID_424_" d="M492.5,79.941h-5.26V69.458c0-10.093-8.212-18.305-18.305-18.305H173.089c-4.142,0-7.5,3.357-7.5,7.5    s3.358,7.5,7.5,7.5H248.5v44.436H39.76V69.458c0-1.822,1.482-3.305,3.305-3.305h95.847c4.142,0,7.5-3.357,7.5-7.5    s-3.358-7.5-7.5-7.5H43.064c-10.093,0-18.305,8.212-18.305,18.305v10.482H19.5c-10.752,0-19.5,8.748-19.5,19.5v341.905    c0,10.752,8.748,19.5,19.5,19.5h149.411c4.142,0,7.5-3.357,7.5-7.5s-3.358-7.5-7.5-7.5H19.5c-2.481,0-4.5-2.019-4.5-4.5V99.441    c0-2.481,2.019-4.5,4.5-4.5h5.26v259.995v13.459V408c0,10.752,8.748,19.5,19.5,19.5H248.5v18.347h-45.411    c-4.142,0-7.5,3.357-7.5,7.5s3.358,7.5,7.5,7.5H492.5c10.752,0,19.5-8.748,19.5-19.5V99.441    C512,88.689,503.252,79.941,492.5,79.941z M468.936,66.154c1.822,0,3.305,1.482,3.305,3.305v143.389l-57.779,15.957v-32.526    c26.413-3.666,46.818-26.383,46.818-53.788c0-29.952-24.367-54.319-54.318-54.319c-22.233,0-41.977,13.669-50.226,33.637    c-8.399-5.328-18.345-8.427-29.006-8.427c-29.951,0-54.318,24.367-54.318,54.319c0,27.406,20.405,50.123,46.818,53.788v33.341    L263.5,270.497V66.154H468.936z M406.961,134.991c-4.143,0-7.5,3.357-7.5,7.5v7.742l-6.055-1.587    c-3.999-1.048-8.106,1.346-9.156,5.354c-1.051,4.006,1.347,8.105,5.354,9.156l9.857,2.584v15.349    c-6.473-1.251-12.536-4.115-17.653-8.381c0.152-1.65,0.24-3.318,0.24-5.007c0-13.472-4.941-25.805-13.091-35.308    c4.52-17.058,20.154-29.221,38.004-29.221c21.681,0,39.318,17.639,39.318,39.319c0,19.116-13.714,35.081-31.818,38.592v-38.592    C414.461,138.348,411.104,134.991,406.961,134.991z M367.048,167.701c0,19.116-13.715,35.081-31.819,38.592v-13.477l21.019-17.559    c3.179-2.655,3.603-7.386,0.947-10.564c-2.656-3.179-7.387-3.602-10.564-0.947l-11.401,9.525v-5.57c0-4.143-3.357-7.5-7.5-7.5    s-7.5,3.357-7.5,7.5v38.592c-18.104-3.512-31.818-19.477-31.818-38.592c0-21.681,17.638-39.319,39.318-39.319    S367.048,146.02,367.048,167.701z M335.229,221.489c19.349-2.685,35.468-15.592,42.708-33.081    c6.525,4.132,13.849,6.82,21.524,7.883v36.657l-64.232,17.739V221.489z M419.866,391.5H263.5v-4.801h205.436    c1.13,0,2.231-0.117,3.305-0.314V408c0,2.481-2.019,4.5-4.5,4.5H263.5v-6h156.366c4.143,0,7.5-3.357,7.5-7.5    S424.009,391.5,419.866,391.5z M43.064,371.699c-1.822,0-3.305-1.482-3.305-3.304v-13.459V244.459H248.5v127.239H43.064z     M248.5,229.459H39.76v-44.436H248.5V229.459z M248.5,125.589v44.435H39.76v-44.435H248.5z M44.26,412.5    c-2.481,0-4.5-2.019-4.5-4.5v-21.615c1.074,0.197,2.175,0.314,3.305,0.314H248.5v4.801H113.667c-4.142,0-7.5,3.357-7.5,7.5    s3.358,7.5,7.5,7.5H248.5v6H44.26z M497,441.346c0,2.481-2.019,4.5-4.5,4.5h-229V427.5h204.24c10.752,0,19.5-8.748,19.5-19.5    v-39.604v-13.459V279.09c0-4.143-3.357-7.5-7.5-7.5s-7.5,3.357-7.5,7.5v75.846v13.459c0,1.821-1.482,3.304-3.305,3.304H263.5    v-85.64l208.74-57.649v16.503c0,4.143,3.357,7.5,7.5,7.5s7.5-3.357,7.5-7.5V94.941h5.26c2.481,0,4.5,2.019,4.5,4.5V441.346z" data-original="#000000" class="active-path" style="fill:#000000" data-old_color="#190A60"/>
		<path id="XMLID_436_" d="M452.362,343.78h-0.083c-4.143,0-7.459,3.357-7.459,7.5s3.399,7.5,7.542,7.5s7.5-3.357,7.5-7.5    S456.505,343.78,452.362,343.78z" data-original="#000000" class="active-path" style="fill:#000000" data-old_color="#190A60"/>
		<path id="XMLID_437_" d="M427.969,343.78h-16.206c-4.143,0-7.5,3.357-7.5,7.5s3.357,7.5,7.5,7.5h16.206c4.143,0,7.5-3.357,7.5-7.5    S432.111,343.78,427.969,343.78z" data-original="#000000" class="active-path" style="fill:#000000" data-old_color="#190A60"/>
		<path id="XMLID_438_" d="M228.172,343.78h-0.083c-4.142,0-7.458,3.357-7.458,7.5s3.399,7.5,7.542,7.5s7.5-3.357,7.5-7.5    S232.314,343.78,228.172,343.78z" data-original="#000000" class="active-path" style="fill:#000000" data-old_color="#190A60"/>
		<path id="XMLID_439_" d="M203.779,343.78h-16.207c-4.142,0-7.5,3.357-7.5,7.5s3.358,7.5,7.5,7.5h16.207c4.142,0,7.5-3.357,7.5-7.5    S207.921,343.78,203.779,343.78z" data-original="#000000" class="active-path" style="fill:#000000" data-old_color="#190A60"/>
		<path id="XMLID_440_" d="M430.073,290.358H304.622c-4.143,0-7.5,3.357-7.5,7.5s3.357,7.5,7.5,7.5h125.451    c4.143,0,7.5-3.357,7.5-7.5S434.216,290.358,430.073,290.358z" data-original="#000000" class="active-path" style="fill:#000000" data-old_color="#190A60"/>
		<path id="XMLID_441_" d="M430.073,311.967h-77.506c-4.143,0-7.5,3.357-7.5,7.5s3.357,7.5,7.5,7.5h77.506    c4.143,0,7.5-3.357,7.5-7.5S434.216,311.967,430.073,311.967z" data-original="#000000" class="active-path" style="fill:#000000" data-old_color="#190A60"/>
		<path id="XMLID_442_" d="M331.634,311.967h-27.012c-4.143,0-7.5,3.357-7.5,7.5s3.357,7.5,7.5,7.5h27.012    c4.143,0,7.5-3.357,7.5-7.5S335.776,311.967,331.634,311.967z" data-original="#000000" class="active-path" style="fill:#000000" data-old_color="#190A60"/>
		<path id="XMLID_443_" d="M204.679,268.15h-13.055c-4.142,0-7.5,3.357-7.5,7.5s3.358,7.5,7.5,7.5h13.055c4.142,0,7.5-3.357,7.5-7.5    S208.821,268.15,204.679,268.15z" data-original="#000000" class="active-path" style="fill:#000000" data-old_color="#190A60"/>
		<path id="XMLID_444_" d="M79.229,283.15h89.436c4.142,0,7.5-3.357,7.5-7.5s-3.358-7.5-7.5-7.5H79.229c-4.142,0-7.5,3.357-7.5,7.5    S75.087,283.15,79.229,283.15z" data-original="#000000" class="active-path" style="fill:#000000" data-old_color="#190A60"/>
		<path id="XMLID_445_" d="M204.679,290.358h-77.881c-4.142,0-7.5,3.357-7.5,7.5s3.358,7.5,7.5,7.5h77.881    c4.142,0,7.5-3.357,7.5-7.5S208.821,290.358,204.679,290.358z" data-original="#000000" class="active-path" style="fill:#000000" data-old_color="#190A60"/>
		<path id="XMLID_446_" d="M79.229,305.358h25.96c4.142,0,7.5-3.357,7.5-7.5s-3.358-7.5-7.5-7.5h-25.96c-4.142,0-7.5,3.357-7.5,7.5    S75.087,305.358,79.229,305.358z" data-original="#000000" class="active-path" style="fill:#000000" data-old_color="#190A60"/>
		<path id="XMLID_447_" d="M204.679,311.967H79.229c-4.142,0-7.5,3.357-7.5,7.5s3.358,7.5,7.5,7.5h125.45c4.142,0,7.5-3.357,7.5-7.5    S208.821,311.967,204.679,311.967z" data-original="#000000" class="active-path" style="fill:#000000" data-old_color="#190A60"/>
		<path id="XMLID_448_" d="M84.313,214.742c4.142,0,7.5-3.357,7.5-7.5s-3.358-7.5-7.5-7.5h-0.083c-4.142,0-7.458,3.357-7.458,7.5    S80.171,214.742,84.313,214.742z" data-original="#000000" class="active-path" style="fill:#000000" data-old_color="#190A60"/>
		<path id="XMLID_449_" d="M144.213,154.841c4.142,0,7.5-3.357,7.5-7.5s-3.358-7.5-7.5-7.5h-0.083c-4.142,0-7.458,3.357-7.458,7.5    S140.071,154.841,144.213,154.841z" data-original="#000000" class="active-path" style="fill:#000000" data-old_color="#190A60"/>
		<path id="XMLID_450_" d="M211.614,87.441c0-4.143-3.358-7.5-7.5-7.5h-0.083c-4.142,0-7.458,3.357-7.458,7.5s3.4,7.5,7.542,7.5    S211.614,91.583,211.614,87.441z" data-original="#000000" class="active-path" style="fill:#000000" data-old_color="#190A60"/>
		<path id="XMLID_451_" d="M92.209,391.5H74.333c-4.142,0-7.5,3.357-7.5,7.5s3.358,7.5,7.5,7.5h17.875c4.142,0,7.5-3.357,7.5-7.5    S96.351,391.5,92.209,391.5z" data-original="#000000" class="active-path" style="fill:#000000" data-old_color="#190A60"/>
	</g>
</g></g></g> </svg>
